
<svg width="112px" height="30px" viewBox="0 0 112 30" version="1.1" xmlns="http://www.w3.org/2000/svg" xmlns:xlink="http://www.w3.org/1999/xlink">
    <defs>
        <polygon id="path-1" points="0 0.00526371896 10.53281 0.00526371896 10.53281 15.6564254 0 15.6564254"></polygon>
        <polygon id="path-3" points="0 30 112 30 112 0 0 0"></polygon>
    </defs>
    <g id="Gerador" stroke="none" stroke-width="1" fill="white" fill-rule="evenodd">
        <g id="Cadastro/Início" transform="translate(-132.000000, -734.000000)">
            <rect fill="#131415" x="0" y="0" width="375" height="812"></rect>
            <g id="Logo/Horizontal/Black" transform="translate(132.000000, 734.000000)">
                <g id="Group-25">
                    <path d="M25.9694957,21.5783335 L18.8859773,21.5783335 L18.8859773,19.3846154 L16.8485774,22.0384925 L14.8099174,24.6918739 L16.8485774,27.3457511 L18.8859773,30 L18.8859773,28.4817106 L22.6613671,28.3414197 C25.9983529,28.1432527 26.7961498,26.7879337 26.7961498,26.7879337 L30.5454545,19.9363601 C29.1634552,21.8317742 25.9694957,21.5783335 25.9694957,21.5783335" id="Fill-1" fill="#05B446"></path>
                    <path d="M28.1207908,11.5384615 L22.214876,15.035627 L25.1673407,20.2538153 C28.1764628,20.5398363 29.1034266,19.5938827 29.1034266,19.5938827 C31.5145671,18.2035796 30.173635,15.1206298 30.173635,15.1206298 L28.1207908,11.5384615 Z" id="Fill-3" fill="#0A8C32"></path>
                    <g id="Group-7" transform="translate(0.000000, 10.153846)">
                        <mask id="mask-2" fill="white">
                            <use xlink:href="#path-1"></use>
                        </mask>
                        <g id="Clip-6"></g>
                        <path d="M4.12449633,15.6564254 C3.20868699,13.5193061 5.05354957,10.9713449 5.05354957,10.9713449 L8.66046942,5.03260957 L10.53281,6.16665681 L9.30298412,3.08577492 L8.07600507,0.00526371896 L4.77134315,0.342586554 L1.466805,0.680774319 L2.76210771,1.46403053 L0.96217536,4.70282399 C-0.568051816,7.60256475 0.185488833,8.97261442 0.185488833,8.97261442 L4.12449633,15.6564254 Z" id="Fill-5" fill="#05B446" mask="url(#mask-2)"></path>
                    </g>
                    <path d="M5.11149396,24.9137133 C5.02911338,27.6702223 8.30392584,28.0868055 8.30392584,28.0868055 L12.3689771,28.1538462 L12.4958678,21.3573743 L6.59791011,21.2307692 C4.8002921,23.645702 5.11149396,24.9137133 5.11149396,24.9137133" id="Fill-8" fill="#0A8C32"></path>
                    <path d="M19.847497,11.0279168 L23.1441009,11.5384615 L24.5296715,8.46714129 L25.9173554,5.39745659 L24.5785257,6.12905282 L22.6851446,2.88184752 C20.9459092,0.04554391 19.374245,0 19.374245,0 L11.5702479,0.0101907644 C13.8920048,0.309119853 15.1645767,3.23764359 15.1645767,3.23764359 L18.4841781,9.45891654 L16.5494014,10.5171205 L19.847497,11.0279168 Z" id="Fill-10" fill="#05B446"></path>
                    <path d="M14.3471074,4.58488928 C13.1819759,1.76125959 11.9431971,1.37910669 11.9431971,1.37910669 C9.63198276,-0.115241174 7.64047289,2.54144673 7.64047289,2.54144673 L5.55371901,6.0718592 L11.2921405,9.69230769 L14.3471074,4.58488928 Z" id="Fill-12" fill="#0A8C32"></path>
                    <path d="M49.2965622,12.7423158 C49.2965622,11.2627898 48.2760367,10.5007009 46.6123144,10.5007009 L43.2180925,10.5007009 L43.2180925,15.0066328 L46.6788434,15.0066328 C48.3425657,15.0066328 49.2965622,14.1098364 49.2965622,12.7872183 L49.2965622,12.7423158 Z M49.2300332,23.0769231 L45.9023404,18.0552391 L43.2180925,18.0552391 L43.2180925,23.0769231 L39.8016529,23.0769231 L39.8016529,7.38461538 L46.9006482,7.38461538 C50.5611103,7.38461538 52.7573131,9.33499093 52.7573131,12.5630819 L52.7573131,12.6079845 C52.7573131,15.1410896 51.4040183,16.7326211 49.4296203,17.4725096 L53.2231405,23.0769231 L49.2300332,23.0769231 Z" id="Fill-14" fill="#000000"></path>
                    <path d="M59.977821,13.3399522 C58.5920299,13.3399522 57.6901581,14.3450621 57.4261686,15.885964 L62.4635069,15.885964 C62.265484,14.3673034 61.3855189,13.3399522 59.977821,13.3399522 M65.6749485,18.0075156 L57.4702283,18.0075156 C57.8001845,19.5485425 58.8560194,20.3523555 60.3518369,20.3523555 C61.4736385,20.3523555 62.2875138,19.9951192 63.2112925,19.1240822 L65.1250626,20.8437898 C64.0251679,22.2283774 62.441477,23.0769231 60.3077771,23.0769231 C56.7662563,23.0769231 54.1487603,20.5532775 54.1487603,16.890824 L54.1487603,16.8462163 C54.1487603,13.4294174 56.5463266,10.6153846 59.977821,10.6153846 C63.9152646,10.6153846 65.7190083,13.7196798 65.7190083,17.1141123 L65.7190083,17.15872 C65.7190083,17.49384 65.6969784,17.6948869 65.6749485,18.0075156" id="Fill-16" fill="#000000"></path>
                    <path d="M72.8674789,23.0769231 C69.2766047,23.0769231 66.6446281,20.3077201 66.6446281,16.890762 L66.6446281,16.8461538 C66.6446281,13.4293207 69.2542671,10.6153846 72.9120295,10.6153846 C75.1647648,10.6153846 76.5699166,11.3747225 77.6850531,12.6252497 L75.6107695,14.8586553 C74.8525366,14.0545843 74.0941789,13.5409035 72.8898166,13.5409035 C71.1946494,13.5409035 69.9901623,15.0372128 69.9901623,16.8014208 L69.9901623,16.8461538 C69.9901623,18.6774615 71.1723117,20.1514042 73.023593,20.1514042 C74.1610671,20.1514042 74.9417625,19.6600899 75.7670084,18.8783855 L77.7520661,20.8883755 C76.5922543,22.1613942 75.2539907,23.0769231 72.8674789,23.0769231" id="Fill-18" fill="#000000"></path>
                    <mask id="mask-4" fill="white">
                        <use xlink:href="#path-3"></use>
                    </mask>
                    <g id="Clip-21"></g>
                    <path d="M78.7702576,23.0769231 L82.2875936,23.0769231 L82.2875936,11.2159368 L78.7702576,11.2159368 L78.7702576,23.0769231 Z M78.677686,9.91048546 L82.3801653,9.91048546 L82.3801653,6.92307692 L78.677686,6.92307692 L78.677686,9.91048546 Z" id="Fill-20" fill="#000000" mask="url(#mask-4)"></path>
                    <path d="M89.991391,23.0769231 C86.4004764,23.0769231 83.768595,20.3077201 83.768595,16.890762 L83.768595,16.8461538 C83.768595,13.4293207 86.3781385,10.6153846 90.035942,10.6153846 C92.2887027,10.6153846 93.6938703,11.3747225 94.8090193,12.6252497 L92.7348372,14.8586553 C91.976471,14.0545843 91.2181048,13.5409035 90.0137289,13.5409035 C88.3186675,13.5409035 87.1141668,15.0372128 87.1141668,16.8014208 L87.1141668,16.8461538 C87.1141668,18.6774615 88.2963296,20.1514042 90.1475068,20.1514042 C91.2849937,20.1514042 92.0656979,19.6600899 92.890953,18.8783855 L94.8760331,20.8883755 C93.716333,22.1613942 92.3779296,23.0769231 89.991391,23.0769231" id="Fill-22" fill="#000000" mask="url(#mask-4)"></path>
                    <polygon id="Fill-23" fill="#000000" mask="url(#mask-4)" points="96.2644628 23.0769231 99.5041322 23.0769231 99.5041322 6.92307692 96.2644628 6.92307692"></polygon>
                    <path d="M108.755656,17.9748413 C108.169992,17.7039109 107.403814,17.5234169 106.570322,17.5234169 C105.105785,17.5234169 104.204473,18.1103697 104.204473,19.1939653 L104.204473,19.2391835 C104.204473,20.1646416 104.970651,20.7065025 106.074537,20.7065025 C107.674334,20.7065025 108.755656,19.8260101 108.755656,18.5844033 L108.755656,17.9748413 Z M108.688089,22.8510845 L108.688089,21.5417767 C107.85447,22.4672348 106.705329,23.0769231 105.038218,23.0769231 C102.762626,23.0769231 100.892562,21.7673627 100.892562,19.3744593 L100.892562,19.3293674 C100.892562,16.6880163 102.89776,15.4690187 105.759141,15.4690187 C106.975849,15.4690187 107.85447,15.6722481 108.710779,15.9657877 L108.710779,15.7625583 C108.710779,14.3403312 107.832032,13.5502752 106.119666,13.5502752 C104.812953,13.5502752 103.889203,13.7985966 102.785191,14.2048028 L101.929007,11.5861872 C103.258411,10.9992344 104.564998,10.6153846 106.615324,10.6153846 C110.355327,10.6153846 112,12.5568635 112,15.8302593 L112,22.8510845 L108.688089,22.8510845 Z" id="Fill-24" fill="#000000" mask="url(#mask-4)"></path>
                </g>
            </g>
        </g>
    </g>
</svg>