
<svg width="148px" height="39px" viewBox="0 0 148 39" version="1.1" xmlns="http://www.w3.org/2000/svg" xmlns:xlink="http://www.w3.org/1999/xlink">
  
    <g id="Gerador" stroke="none" stroke-width="1" fill="none" fill-rule="evenodd">
        <g id="Welcome" transform="translate(-114.000000, -698.000000)">
           
            <g id="Logo/Horizontal/White" transform="translate(114.000000, 697.000000)">
                <g id="Group-18" transform="translate(0.000000, 0.615385)">
                    <path d="M67.5880028,15.3387734 C67.5880028,13.4821133 66.2394511,12.5257665 64.040961,12.5257665 L59.5557392,12.5257665 L59.5557392,18.1802692 L64.1288743,18.1802692 C66.3275285,18.1802692 67.5880028,17.0548776 67.5880028,15.3951217 L67.5880028,15.3387734 Z M67.5000894,28.3076923 L63.102781,22.0059713 L59.5557392,22.0059713 L59.5557392,28.3076923 L55.0413223,28.3076923 L55.0413223,8.61538462 L64.4219735,8.61538462 C69.2590128,8.61538462 72.1611379,11.0629147 72.1611379,15.1138524 L72.1611379,15.1702007 C72.1611379,18.3489993 70.3728554,20.3462153 67.7638295,21.2747028 L72.7768595,28.3076923 L67.5000894,28.3076923 Z" id="Fill-1" fill="#FFFFFF"></path>
                    <path d="M80.4796288,16.2867406 C78.6483854,16.2867406 77.4566134,17.527617 77.1079291,19.4299651 L83.7641574,19.4299651 C83.5026441,17.5550755 82.3398208,16.2867406 80.4796288,16.2867406 M88.0080559,22.0491646 L77.1659889,22.0491646 C77.602007,23.9516669 78.9972323,24.9440287 80.9737067,24.9440287 C82.4561031,24.9440287 83.5317553,24.5029961 84.7524759,23.4276419 L87.2812506,25.5507376 C85.8281281,27.2601051 83.7352088,28.3076923 80.9156469,28.3076923 C76.2357303,28.3076923 72.7768595,25.1920805 72.7768595,20.670533 L72.7768595,20.6154617 C72.7768595,16.3971915 75.9451058,12.9230769 80.4796288,12.9230769 C85.6825719,12.9230769 88.0661157,16.7555401 88.0661157,20.9461976 L88.0661157,21.0012688 C88.0661157,21.4149971 88.0371671,21.6632032 88.0080559,22.0491646" id="Fill-3" fill="#FFFFFF"></path>
                    <path d="M96.9006663,28.3076923 C92.1555292,28.3076923 88.677686,24.8889232 88.677686,20.6704564 L88.677686,20.6153846 C88.677686,16.3970721 92.1260113,12.9230769 96.9595373,12.9230769 C99.9363997,12.9230769 101.793228,13.8605311 103.266983,15.4043919 L100.525934,18.1616827 C99.5238077,17.1690025 98.5216809,16.5348287 96.9301842,16.5348287 C94.6902817,16.5348287 93.0986201,18.382124 93.0986201,20.5601586 L93.0986201,20.6153846 C93.0986201,22.8762582 94.6607637,24.6959406 97.1069622,24.6959406 C98.6100699,24.6959406 99.6417147,24.0893798 100.73223,23.1243126 L103.355372,25.6057818 C101.822746,27.1774098 100.054307,28.3076923 96.9006663,28.3076923" id="Fill-5" fill="#FFFFFF"></path>
                    <mask id="mask-2" fill="white">
                        <use xlink:href="#path-1"></use>
                    </mask>
                    <g id="Clip-8"></g>
                    <path d="M105.312405,28.3076923 L109.960151,28.3076923 L109.960151,12.9450088 L105.312405,12.9450088 L105.312405,28.3076923 Z M105.190083,11.2539911 L110.082645,11.2539911 L110.082645,7.38461538 L105.190083,7.38461538 L105.190083,11.2539911 Z" id="Fill-7" fill="#FFFFFF" mask="url(#mask-2)"></path>
                    <path d="M119.528673,28.3076923 C114.783589,28.3076923 111.305785,24.8889232 111.305785,20.6704564 L111.305785,20.6153846 C111.305785,16.3970721 114.754237,12.9230769 119.587708,12.9230769 C122.564537,12.9230769 124.42118,13.8605311 125.894918,15.4043919 L123.153901,18.1616827 C122.151785,17.1690025 121.149834,16.5348287 119.558356,16.5348287 C117.318313,16.5348287 115.72667,18.382124 115.72667,20.5601586 L115.72667,20.6153846 C115.72667,22.8762582 117.288796,24.6959406 119.734967,24.6959406 C121.238058,24.6959406 122.269691,24.0893798 123.360194,23.1243126 L125.983471,25.6057818 C124.450863,27.1774098 122.682278,28.3076923 119.528673,28.3076923" id="Fill-9" fill="#FFFFFF" mask="url(#mask-2)"></path>
                    <polygon id="Fill-10" fill="#FFFFFF" mask="url(#mask-2)" points="127.206612 28.3076923 131.487603 28.3076923 131.487603 7.38461538 127.206612 7.38461538"></polygon>
                    <path d="M143.891303,22.008826 C143.149637,21.6743439 142.179373,21.4515118 141.123864,21.4515118 C139.269219,21.4515118 138.127986,22.176145 138.127986,23.5139173 L138.127986,23.5697422 C138.127986,24.7122831 139.09809,25.3812472 140.496177,25.3812472 C142.521951,25.3812472 143.891303,24.2942195 143.891303,22.7613716 L143.891303,22.008826 Z M143.805899,28.0288793 L143.805899,26.4124499 C142.750229,27.5549907 141.294993,28.3076923 139.183814,28.3076923 C136.302076,28.3076923 133.933884,26.6909511 133.933884,23.7367494 L133.933884,23.6810803 C133.933884,20.4201531 136.473205,18.9152178 140.09661,18.9152178 C141.637411,18.9152178 142.750229,19.1661183 143.834473,19.5285128 L143.834473,19.2776123 C143.834473,17.5217764 142.721655,16.5463987 140.553167,16.5463987 C138.898386,16.5463987 137.728738,16.8529682 136.330491,17.3544574 L135.246407,14.1215987 C136.929762,13.3969655 138.584543,12.9230769 141.180854,12.9230769 C145.917077,12.9230769 148,15.3199644 148,19.3611938 L148,28.0288793 L143.805899,28.0288793 Z" id="Fill-11" fill="#FFFFFF" mask="url(#mask-2)"></path>
                    <path d="M34.3169998,28.0285687 L24.9566642,28.0285687 L24.9566642,25.2307692 L22.2642636,28.6153846 L19.5702479,31.9993868 L22.2642636,35.3840022 L24.9566642,38.7692308 L24.9566642,36.832953 L29.9454624,36.6540569 C34.3551142,36.4009658 35.4093996,34.6727102 35.4093996,34.6727102 L40.3636364,25.9343964 C38.5375327,28.351716 34.3169998,28.0285687 34.3169998,28.0285687" id="Fill-12" fill="#05B446" mask="url(#mask-2)"></path>
                    <path d="M36.9815703,15.3846154 L28.7438017,19.8020629 L32.8621028,26.3934704 C37.0593842,26.7547972 38.3522268,25.5599114 38.3522268,25.5599114 C41.7153839,23.8037307 39.8450193,19.9094303 39.8450193,19.9094303 L36.9815703,15.3846154 Z" id="Fill-13" fill="#0A8C32" mask="url(#mask-2)"></path>
                    <path d="M5.50807313,34.4615385 C4.28503759,31.6045831 6.74890354,28.1984412 6.74890354,28.1984412 L11.5656982,20.2591075 L14.0661157,21.775298 L12.4236987,17.6565594 L10.7851293,13.5384615 L6.37200531,13.9894417 L1.95888136,14.4413831 L3.68866948,15.48833 L1.28492128,19.8182203 C-0.758441035,23.6948875 0.247689665,25.5263636 0.247689665,25.5263636 L5.50807313,34.4615385 Z" id="Fill-14" fill="#05B446" mask="url(#mask-2)"></path>
                    <path d="M6.75616071,32.6028848 C6.64046428,36.2781704 11.2383508,36.8336871 11.2383508,36.8336871 L16.9458179,36.9230769 L17.1239669,27.8611023 L8.84304965,27.6923077 C6.31932717,30.912244 6.75616071,32.6028848 6.75616071,32.6028848" id="Fill-15" fill="#0A8C32" mask="url(#mask-2)"></path>
                    <path d="M26.5799989,14.7312838 L31.0767912,15.3846154 L32.9665853,11.4535363 L34.8595041,7.52417528 L33.0333555,8.46083074 L30.4506972,4.30406095 C28.078217,0.673798679 25.9343343,0.615384615 25.9343343,0.615384615 L15.2892562,0.628504352 C18.4564005,1.01100714 20.1922613,4.75965941 20.1922613,4.75965941 L24.7203007,12.7228708 L22.0812331,14.0773274 L26.5799989,14.7312838 Z" id="Fill-16" fill="#05B446" mask="url(#mask-2)"></path>
                    <path d="M19.5702479,5.85623284 C17.9497824,2.28955364 16.22636,1.80681637 16.22636,1.80681637 C13.0117819,-0.0807767035 10.2414405,3.27494432 10.2414405,3.27494432 L7.33884298,7.73448064 L15.3208635,12.3076923 L19.5702479,5.85623284 Z" id="Fill-17" fill="#0A8C32" mask="url(#mask-2)"></path>
                </g>
            </g>
        </g>
    </g>
</svg>