<?xml version="1.0" encoding="UTF-8"?>
<svg width="24px" height="66px" viewBox="0 0 24 66" version="1.1" xmlns="http://www.w3.org/2000/svg" xmlns:xlink="http://www.w3.org/1999/xlink">
    <!-- Generator: sketchtool 54.1 (76490) - https://sketchapp.com -->
    <title>2037C1C9-96A2-4505-BBAC-8E8C9143FEAF</title>
    <desc>Created with sketchtool.</desc>
    <g id="Gerador" stroke="none" stroke-width="1" fill="none" fill-rule="evenodd">
        <g id="Armário/Categorias" transform="translate(-262.000000, -256.000000)" fill="#FFFFFF">
            <path d="M281.339355,319 L266.661226,319 C265.745548,319 265,318.222306 265,317.266404 L265,303 L283,303 L283,317.266404 C283,318.222306 282.255032,319 281.339355,319 L281.339355,319 Z M265,300 L283,300 L283,288 L265,288 L265,300 Z M265.843097,275.926956 L271.88471,266 L275.545677,266 L282.124387,276.538399 C282.697484,277.456183 283,278.524658 283,279.62848 L283,285 L265,285 L265,278.963086 C265,277.882829 265.291484,276.832958 265.843097,275.926956 L265.843097,275.926956 Z M271,263 L278,263 L278,259 L271,259 L271,263 Z M284.625561,274.68682 L278.773659,265.565438 C279.57678,265.227834 280.146341,264.412719 280.146341,263.458304 L280.146341,258.274415 C280.146341,257.020111 279.164683,256 277.958244,256 L269.749659,256 C268.54322,256 267.560976,257.020111 267.560976,258.274415 L267.560976,263.458304 C267.560976,264.330599 268.041561,265.080627 268.73639,265.462028 L263.322927,274.116848 C262.457756,275.500111 262,277.102968 262,278.752664 L262,317.218802 C262,319.855152 264.064585,322 266.601561,322 L281.399024,322 C283.936,322 286,319.855152 286,317.218802 L286,279.405364 C286,277.720387 285.524683,276.088332 284.625561,274.68682 L284.625561,274.68682 Z" id="Fill-1"></path>
        </g>
    </g>
</svg>